Miscelanea_y_comunidad/frere_jacques_two_voices_melody/frerejacques_tb.vcd
$date
	Mon Jan  2 18:34:11 2017
$end
$version
	Icarus Verilog
$end
$timescale
	1s
$end
$scope module secnotas_tb $end
$var wire 1 ! ch_out $end
$var reg 1 " clk $end
$scope module dut $end
$var wire 1 " clk $end
$var wire 1 # clk_dur $end
$var wire 1 $ ch7 $end
$var wire 1 % ch6 $end
$var wire 1 & ch5 $end
$var wire 1 ' ch4 $end
$var wire 1 ( ch3 $end
$var wire 1 ) ch2 $end
$var wire 1 * ch1 $end
$var wire 1 + ch0 $end
$var reg 1 ! ch_out $end
$var reg 1 , ch_out2 $end
$var reg 6 - sel [5:0] $end
$var reg 6 . sel2 [5:0] $end
$scope module CH0 $end
$var wire 1 " clk_in $end
$var wire 1 + clk_out $end
$var reg 2 / divcounter [1:0] $end
$upscope $end
$scope module CH1 $end
$var wire 1 " clk_in $end
$var wire 1 * clk_out $end
$var reg 2 0 divcounter [1:0] $end
$upscope $end
$scope module CH2 $end
$var wire 1 " clk_in $end
$var wire 1 ) clk_out $end
$var reg 1 1 divcounter $end
$upscope $end
$scope module CH3 $end
$var wire 1 " clk_in $end
$var wire 1 ( clk_out $end
$var reg 16 2 divcounter [15:0] $end
$upscope $end
$scope module CH4 $end
$var wire 1 " clk_in $end
$var wire 1 ' clk_out $end
$var reg 15 3 divcounter [14:0] $end
$upscope $end
$scope module CH5 $end
$var wire 1 " clk_in $end
$var wire 1 & clk_out $end
$var reg 15 4 divcounter [14:0] $end
$upscope $end
$scope module CH6 $end
$var wire 1 " clk_in $end
$var wire 1 % clk_out $end
$var reg 15 5 divcounter [14:0] $end
$upscope $end
$scope module CH7 $end
$var wire 1 " clk_in $end
$var wire 1 $ clk_out $end
$var reg 15 6 divcounter [14:0] $end
$upscope $end
$scope module TIMER0 $end
$var wire 1 " clk_in $end
$var wire 1 # clk_out $end
$var reg 4 7 divcounter [3:0] $end
$upscope $end
$upscope $end
$upscope $end
$enddefinitions $end
#0
$dumpvars
b0 7
b0 6
b0 5
b0 4
b0 3
b0 2
01
b0 0
b0 /
b111100 .
b0 -
0,
0+
0*
0)
0(
0'
0&
0%
0$
0#
0"
0!
$end
#1
b1 /
b1 0
1)
11
b1 2
b1 3
b1 4
b1 5
b1 6
b1 7
1"
#2
0"
#3
1!
1*
1+
b10 7
b10 6
b10 5
b10 4
b10 3
b10 2
0)
01
b10 0
b10 /
1"
#4
0"
#5
0*
b11 /
b0 0
1)
11
b11 2
b11 3
b11 4
b11 5
b11 6
b11 7
1"
#6
0"
#7
0!
0+
b100 7
b100 6
b100 5
b100 4
b100 3
b100 2
0)
01
b1 0
b0 /
1"
#8
0"
#9
1*
b1 /
b10 0
1)
11
b101 2
b101 3
b101 4
b101 5
b101 6
b101 7
1"
#10
0"
#11
1!
0*
1+
b110 7
b110 6
b110 5
b110 4
b110 3
b110 2
0)
01
b0 0
b10 /
1"
#12
0"
#13
b11 /
b1 0
1)
11
b111 2
b111 3
b111 4
b111 5
b111 6
b111 7
1"
#14
0"
#15
b111101 .
b1 -
1!
1#
1*
0+
b1000 7
b1000 6
b1000 5
b1000 4
b1000 3
b1000 2
0)
01
b10 0
b0 /
1"
#16
0"
#17
0!
0*
b1 /
b0 0
1)
11
b1001 2
b1001 3
b1001 4
b1001 5
b1001 6
b1001 7
1"
#18
0"
#19
0#
1+
b0 7
b1010 6
b1010 5
b1010 4
b1010 3
b1010 2
0)
01
b1 0
b10 /
1"
#20
0"
#21
1!
1*
b11 /
b10 0
1)
11
b1011 2
b1011 3
b1011 4
b1011 5
b1011 6
b1 7
1"
#22
0"
#23
0!
0*
0+
b10 7
b1100 6
b1100 5
b1100 4
b1100 3
b1100 2
0)
01
b0 0
b0 /
1"
#24
0"
#25
b1 /
b1 0
1)
11
b1101 2
b1101 3
b1101 4
b1101 5
b1101 6
b11 7
1"
#26
0"
#27
1!
1*
1+
b100 7
b1110 6
b1110 5
b1110 4
b1110 3
b1110 2
0)
01
b10 0
b10 /
1"
#28
0"
#29
0!
0*
b11 /
b0 0
1)
11
b1111 2
b1111 3
b1111 4
b1111 5
b1111 6
b101 7
1"
#30
0"
#31
0+
b110 7
b10000 6
b10000 5
b10000 4
b10000 3
b10000 2
0)
01
b1 0
b0 /
1"
#32
0"
#33
1!
1*
b1 /
b10 0
1)
11
b10001 2
b10001 3
b10001 4
b10001 5
b10001 6
b111 7
1"
#34
0"
#35
b111110 .
b10 -
0!
1#
0*
1+
b1000 7
b10010 6
b10010 5
b10010 4
b10010 3
b10010 2
0)
01
b0 0
b10 /
1"
#36
0"
#37
1!
b11 /
b1 0
1)
11
b10011 2
b10011 3
b10011 4
b10011 5
b10011 6
b1001 7
1"
#38
0"
#39
0!
0#
1*
0+
b0 7
b10100 6
b10100 5
b10100 4
b10100 3
b10100 2
0)
01
b10 0
b0 /
1"
#40
0"
#41
1!
0*
b1 /
b0 0
1)
11
b10101 2
b10101 3
b10101 4
b10101 5
b10101 6
b1 7
1"
#42
0"
#43
0!
1+
b10 7
b10110 6
b10110 5
b10110 4
b10110 3
b10110 2
0)
01
b1 0
b10 /
1"
#44
0"
#45
1!
1*
b11 /
b10 0
1)
11
b10111 2
b10111 3
b10111 4
b10111 5
b10111 6
b11 7
1"
#46
0"
#47
0!
0*
0+
b100 7
b11000 6
b11000 5
b11000 4
b11000 3
b11000 2
0)
01
b0 0
b0 /
1"
#48
0"
#49
1!
b1 /
b1 0
1)
11
b11001 2
b11001 3
b11001 4
b11001 5
b11001 6
b101 7
1"
#50
0"
#51
0!
1*
1+
b110 7
b11010 6
b11010 5
b11010 4
b11010 3
b11010 2
0)
01
b10 0
b10 /
1"
#52
0"
#53
1!
0*
b11 /
b0 0
1)
11
b11011 2
b11011 3
b11011 4
b11011 5
b11011 6
b111 7
1"
#54
0"
#55
b111111 .
b11 -
0!
1#
0+
b1000 7
b11100 6
b11100 5
b11100 4
b11100 3
b11100 2
0)
01
b1 0
b0 /
1"
#56
0"
#57
1*
b1 /
b10 0
1)
11
b11101 2
b11101 3
b11101 4
b11101 5
b11101 6
b1001 7
1"
#58
0"
#59
1!
0#
0*
1+
b0 7
b11110 6
b11110 5
b11110 4
b11110 3
b11110 2
0)
01
b0 0
b10 /
1"
#60
0"
#61
b11 /
b1 0
1)
11
b11111 2
b11111 3
b11111 4
b11111 5
b11111 6
b1 7
1"
#62
0"
#63
0!
1*
0+
b10 7
b100000 6
b100000 5
b100000 4
b100000 3
b100000 2
0)
01
b10 0
b0 /
1"
#64
0"
#65
0*
b1 /
b0 0
1)
11
b100001 2
b100001 3
b100001 4
b100001 5
b100001 6
b11 7
1"
#66
0"
#67
1!
1+
b100 7
b100010 6
b100010 5
b100010 4
b100010 3
b100010 2
0)
01
b1 0
b10 /
1"
#68
0"
#69
1*
b11 /
b10 0
1)
11
b100011 2
b100011 3
b100011 4
b100011 5
b100011 6
b101 7
1"
#70
0"
#71
0!
0*
0+
b110 7
b100100 6
b100100 5
b100100 4
b100100 3
b100100 2
0)
01
b0 0
b0 /
1"
#72
0"
#73
b1 /
b1 0
1)
11
b100101 2
b100101 3
b100101 4
b100101 5
b100101 6
b111 7
1"
#74
0"
#75
1,
b0 .
b100 -
0!
1#
1*
1+
b1000 7
b100110 6
b100110 5
b100110 4
b100110 3
b100110 2
0)
01
b10 0
b10 /
1"
#76
0"
#77
0*
b11 /
b0 0
1)
11
b100111 2
b100111 3
b100111 4
b100111 5
b100111 6
b1001 7
1"
#78
0"
#79
0,
0#
0+
b0 7
b101000 6
b101000 5
b101000 4
b101000 3
b101000 2
0)
01
b1 0
b0 /
1"
#80
0"
#81
1*
b1 /
b10 0
1)
11
b101001 2
b101001 3
b101001 4
b101001 5
b101001 6
b1 7
1"
#82
0"
#83
1,
0*
1+
b10 7
b101010 6
b101010 5
b101010 4
b101010 3
b101010 2
0)
01
b0 0
b10 /
1"
#84
0"
#85
b11 /
b1 0
1)
11
b101011 2
b101011 3
b101011 4
b101011 5
b101011 6
b11 7
1"
#86
0"
#87
0,
1*
0+
b100 7
b101100 6
b101100 5
b101100 4
b101100 3
b101100 2
0)
01
b10 0
b0 /
1"
#88
0"
#89
0*
b1 /
b0 0
1)
11
b101101 2
b101101 3
b101101 4
b101101 5
b101101 6
b101 7
1"
#90
0"
#91
1,
1+
b110 7
b101110 6
b101110 5
b101110 4
b101110 3
b101110 2
0)
01
b1 0
b10 /
1"
#92
0"
#93
1*
b11 /
b10 0
1)
11
b101111 2
b101111 3
b101111 4
b101111 5
b101111 6
b111 7
1"
#94
0"
#95
b1 .
b101 -
0,
1#
0*
0+
b1000 7
b110000 6
b110000 5
b110000 4
b110000 3
b110000 2
0)
01
b0 0
b0 /
1"
#96
0"
#97
b1 /
b1 0
1)
11
b110001 2
b110001 3
b110001 4
b110001 5
b110001 6
b1001 7
1"
#98
0"
#99
1!
1,
0#
1*
1+
b0 7
b110010 6
b110010 5
b110010 4
b110010 3
b110010 2
0)
01
b10 0
b10 /
1"
#100
0"
#101
0,
0*
b11 /
b0 0
1)
11
b110011 2
b110011 3
b110011 4
b110011 5
b110011 6
b1 7
1"
#102
0"
#103
0!
0+
b10 7
b110100 6
b110100 5
b110100 4
b110100 3
b110100 2
0)
01
b1 0
b0 /
1"
#104
0"
#105
1,
1*
b1 /
b10 0
1)
11
b110101 2
b110101 3
b110101 4
b110101 5
b110101 6
b11 7
1"
#106
0"
#107
1!
0,
0*
1+
b100 7
b110110 6
b110110 5
b110110 4
b110110 3
b110110 2
0)
01
b0 0
b10 /
1"
#108
0"
#109
b11 /
b1 0
1)
11
b110111 2
b110111 3
b110111 4
b110111 5
b110111 6
b101 7
1"
#110
0"
#111
0!
1,
1*
0+
b110 7
b111000 6
b111000 5
b111000 4
b111000 3
b111000 2
0)
01
b10 0
b0 /
1"
#112
0"
#113
0,
0*
b1 /
b0 0
1)
11
b111001 2
b111001 3
b111001 4
b111001 5
b111001 6
b111 7
1"
#114
0"
#115
b10 .
b110 -
0!
1#
1+
b1000 7
b111010 6
b111010 5
b111010 4
b111010 3
b111010 2
0)
01
b1 0
b10 /
1"
#116
0"
#117
1!
1,
1*
b11 /
b10 0
1)
11
b111011 2
b111011 3
b111011 4
b111011 5
b111011 6
b1001 7
1"
#118
0"
#119
0!
0,
0#
0*
0+
b0 7
b111100 6
b111100 5
b111100 4
b111100 3
b111100 2
0)
01
b0 0
b0 /
1"
#120
0"
#121
1,
b1 /
b1 0
1)
11
b111101 2
b111101 3
b111101 4
b111101 5
b111101 6
b1 7
1"
#122
0"
#123
1!
0,
1*
1+
b10 7
b111110 6
b111110 5
b111110 4
b111110 3
b111110 2
0)
01
b10 0
b10 /
1"
#124
0"
#125
0!
1,
0*
b11 /
b0 0
1)
11
b111111 2
b111111 3
b111111 4
b111111 5
b111111 6
b11 7
1"
#126
0"
#127
0,
0+
b100 7
b1000000 6
b1000000 5
b1000000 4
b1000000 3
b1000000 2
0)
01
b1 0
b0 /
1"
#128
0"
#129
1!
1,
1*
b1 /
b10 0
1)
11
b1000001 2
b1000001 3
b1000001 4
b1000001 5
b1000001 6
b101 7
1"
#130
0"
#131
0!
0,
0*
1+
b110 7
b1000010 6
b1000010 5
b1000010 4
b1000010 3
b1000010 2
0)
01
b0 0
b10 /
1"
#132
0"
#133
1,
b11 /
b1 0
1)
11
b1000011 2
b1000011 3
b1000011 4
b1000011 5
b1000011 6
b111 7
1"
#134
0"
#135
b11 .
b111 -
0!
0,
1#
1*
0+
b1000 7
b1000100 6
b1000100 5
b1000100 4
b1000100 3
b1000100 2
0)
01
b10 0
b0 /
1"
#136
0"
#137
1!
0*
b1 /
b0 0
1)
11
b1000101 2
b1000101 3
b1000101 4
b1000101 5
b1000101 6
b1001 7
1"
#138
0"
#139
0!
1,
0#
1+
b0 7
b1000110 6
b1000110 5
b1000110 4
b1000110 3
b1000110 2
0)
01
b1 0
b10 /
1"
#140
0"
#141
1!
1*
b11 /
b10 0
1)
11
b1000111 2
b1000111 3
b1000111 4
b1000111 5
b1000111 6
b1 7
1"
#142
0"
#143
0!
0,
0*
0+
b10 7
b1001000 6
b1001000 5
b1001000 4
b1001000 3
b1001000 2
0)
01
b0 0
b0 /
1"
#144
0"
#145
1!
b1 /
b1 0
1)
11
b1001001 2
b1001001 3
b1001001 4
b1001001 5
b1001001 6
b11 7
1"
#146
0"
#147
0!
1,
1*
1+
b100 7
b1001010 6
b1001010 5
b1001010 4
b1001010 3
b1001010 2
0)
01
b10 0
b10 /
1"
#148
0"
#149
1!
0*
b11 /
b0 0
1)
11
b1001011 2
b1001011 3
b1001011 4
b1001011 5
b1001011 6
b101 7
1"
#150
0"
#151
0!
0,
0+
b110 7
b1001100 6
b1001100 5
b1001100 4
b1001100 3
b1001100 2
0)
01
b1 0
b0 /
1"
#152
0"
#153
1!
1*
b1 /
b10 0
1)
11
b1001101 2
b1001101 3
b1001101 4
b1001101 5
b1001101 6
b111 7
1"
#154
0"
#155
b100 .
b1000 -
1!
0,
1#
0*
1+
b1000 7
b1001110 6
b1001110 5
b1001110 4
b1001110 3
b1001110 2
0)
01
b0 0
b10 /
1"
#156
0"
#157
b11 /
b1 0
1)
11
b1001111 2
b1001111 3
b1001111 4
b1001111 5
b1001111 6
b1001 7
1"
#158
0"
#159
0!
0#
1*
0+
b0 7
b1010000 6
b1010000 5
b1010000 4
b1010000 3
b1010000 2
0)
01
b10 0
b0 /
1"
#160
0"
#161
0*
b1 /
b0 0
1)
11
b1010001 2
b1010001 3
b1010001 4
b1010001 5
b1010001 6
b1 7
1"
#162
0"
#163
1!
1+
b10 7
b1010010 6
b1010010 5
b1010010 4
b1010010 3
b1010010 2
0)
01
b1 0
b10 /
1"
#164
0"
#165
1*
b11 /
b10 0
1)
11
b1010011 2
b1010011 3
b1010011 4
b1010011 5
b1010011 6
b11 7
1"
#166
0"
#167
0!
0*
0+
b100 7
b1010100 6
b1010100 5
b1010100 4
b1010100 3
b1010100 2
0)
01
b0 0
b0 /
1"
#168
0"
#169
b1 /
b1 0
1)
11
b1010101 2
b1010101 3
b1010101 4
b1010101 5
b1010101 6
b101 7
1"
#170
0"
#171
1!
1*
1+
b110 7
b1010110 6
b1010110 5
b1010110 4
b1010110 3
b1010110 2
0)
01
b10 0
b10 /
1"
#172
0"
#173
0*
b11 /
b0 0
1)
11
b1010111 2
b1010111 3
b1010111 4
b1010111 5
b1010111 6
b111 7
1"
#174
0"
#175
b101 .
b1001 -
0!
1#
0+
b1000 7
b1011000 6
b1011000 5
b1011000 4
b1011000 3
b1011000 2
0)
01
b1 0
b0 /
1"
#176
0"
#177
1*
b1 /
b10 0
1)
11
b1011001 2
b1011001 3
b1011001 4
b1011001 5
b1011001 6
b1001 7
1"
#178
0"
#179
1,
0#
0*
1+
b0 7
b1011010 6
b1011010 5
b1011010 4
b1011010 3
b1011010 2
0)
01
b0 0
b10 /
1"
#180
0"
#181
b11 /
b1 0
1)
11
b1011011 2
b1011011 3
b1011011 4
b1011011 5
b1011011 6
b1 7
1"
#182
0"
#183
0,
1*
0+
b10 7
b1011100 6
b1011100 5
b1011100 4
b1011100 3
b1011100 2
0)
01
b10 0
b0 /
1"
#184
0"
#185
0*
b1 /
b0 0
1)
11
b1011101 2
b1011101 3
b1011101 4
b1011101 5
b1011101 6
b11 7
1"
#186
0"
#187
1,
1+
b100 7
b1011110 6
b1011110 5
b1011110 4
b1011110 3
b1011110 2
0)
01
b1 0
b10 /
1"
#188
0"
#189
1*
b11 /
b10 0
1)
11
b1011111 2
b1011111 3
b1011111 4
b1011111 5
b1011111 6
b101 7
1"
#190
0"
#191
0,
0*
0+
b110 7
b1100000 6
b1100000 5
b1100000 4
b1100000 3
b1100000 2
0)
01
b0 0
b0 /
1"
#192
0"
#193
b1 /
b1 0
1)
11
b1100001 2
b1100001 3
b1100001 4
b1100001 5
b1100001 6
b111 7
1"
#194
0"
#195
b110 .
b1010 -
1,
1#
1*
1+
b1000 7
b1100010 6
b1100010 5
b1100010 4
b1100010 3
b1100010 2
0)
01
b10 0
b10 /
1"
#196
0"
#197
0,
1!
0*
b11 /
b0 0
1)
11
b1100011 2
b1100011 3
b1100011 4
b1100011 5
b1100011 6
b1001 7
1"
#198
0"
#199
0!
0#
0+
b0 7
b1100100 6
b1100100 5
b1100100 4
b1100100 3
b1100100 2
0)
01
b1 0
b0 /
1"
